0,1,100000,5000,10,82170
1,1,100000,5000,10,90830
0,3,100000,5000,10,9464
1,3,100000,5000,10,74889
0,4,100000,5000,10,81554
1,4,100000,5000,10,10153
0,1,1000000,5000,10,90277
1,1,1000000,5000,10,99074
0,3,1000000,5000,10,90192
1,3,1000000,5000,10,89045
0,4,1000000,5000,10,80396
1,4,1000000,5000,10,90858
0,1,10000000,5000,10,152917
1,1,10000000,5000,10,176067
0,3,10000000,5000,10,102940
1,3,10000000,5000,10,138419
0,4,10000000,5000,10,107543
1,4,10000000,5000,10,60244
0,1,100000000,5000,10,632148
1,1,100000000,5000,10,940665
0,3,100000000,5000,10,295756
1,3,100000000,5000,10,1538784
0,4,100000000,5000,10,199317
1,4,100000000,5000,10,565066
